taxon,clade
Allantoma_decandra,Allantoma
Allantoma_integrifolia,Allantoma
Allantoma_kuhlmannii,Allantoma
Allantoma_lineata,Allantoma
Allantoma_pachyantha,Allantoma
Allantoma_pauciramosa,Allantoma
Allantoma_pluriflora,Allantoma
Allantoma_uaupensis,Allantoma
Bertholletia_excelsa,Bertholletia
Cariniana_domestica,Carinaria
Cariniana_estrellensis,Carinaria
Cariniana_ianeirensis,Carinaria
Cariniana_legalis,Carinaria
Cariniana_micrantha,Carinaria
Cariniana_parvifolia,Carinaria
Cariniana_penduliflora,Carinaria
Cariniana_pyriformis,Carinaria
Cariniana_rubra,Carinaria
Lecythis_alutacea,Chartacea
Lecythis_brancoensis,Chartacea
Lecythis_chartacea,Chartacea
Lecythis_congestiflora,Chartacea
Lecythis_gracieana,Chartacea
Lecythis_holcogyne,Chartacea
Lecythis_mesophylla,Chartacea
Lecythis_parvifructa,Chartacea
Lecythis_praeclara,Chartacea
Lecythis_retusa,Chartacea
Lecythis_rorida,Chartacea
Lecythis_schomburgkii,Chartacea
Lecythis_serrata,Chartacea
Lecythis_simiorum,Chartacea
Lecythis_confertiflora,Corrugata
Lecythis_corrugata,Corrugata
Lecythis_idatimon,Corrugata
Lecythis_persistens,Corrugata
Lecythis_pneumatophora,Corrugata
Corythophora_alta,Corythophora
Corythophora_amapaensis,Corythophora
Corythophora_labriculata,Corythophora
Corythophora_rimosa,Corythophora
Couratari_asterophora,Couratari
Couratari_asterotricha,Couratari
Couratari_atrovinosa,Couratari
Couratari_calycina,Couratari
Couratari_gloriosa,Couratari
Couratari_guianensis,Couratari
Couratari_longipedicellata,Couratari
Couratari_macrosperma,Couratari
Couratari_multiflora,Couratari
Couratari_oblongifolia,Couratari
Couratari_oligantha,Couratari
Couratari_prancei,Couratari
Couratari_pyramidata,Couratari
Couratari_riparia,Couratari
Couratari_sandwithii,Couratari
Couratari_scottmorii,Couratari
Couratari_stellata,Couratari
Couratari_tauari,Couratari
Couratari_tenuicarpa,Couratari
Couroupita_guianensis,Couroupita
Couroupita_nicaraguarensis,Couroupita
Couroupita_subsessilis,Couroupita
Grias_angustipetala,Grias
Grias_cauliflora,Grias
Grias_ecuadorica,Grias
Grias_haughtii,Grias
Grias_longirachis,Grias
Grias_multinervia,Grias
Grias_neuberthii,Grias
Grias_peruviana,Grias
Grias_purpuripetala,Grias
Grias_subbullata,Grias
Grias_theobromicarpa,Grias
Gustavia_acuminata,Gustavia
Gustavia_acuta,Gustavia
Gustavia_angustifolia,Gustavia
Gustavia_augusta,Gustavia
Gustavia_brachycarpa,Gustavia
Gustavia_coriacea,Gustavia
Gustavia_dodsonii,Gustavia
Gustavia_dubia,Gustavia
Gustavia_elliptica,Gustavia
Gustavia_erythrocarpa,Gustavia
Gustavia_excelsa,Gustavia
Gustavia_flagellata_,Gustavia
Gustavia_fosteri,Gustavia
Gustavia_gentryi,Gustavia
Gustavia_gigantophylla,Gustavia
Gustavia_gracilipes,Gustavia
Gustavia_gracillima,Gustavia
Gustavia_grandibracteata,Gustavia
Gustavia_hexapetala,Gustavia
Gustavia_hubbardiorum,Gustavia
Gustavia_inakuama,Gustavia
Gustavia_johnclarkii,Gustavia
Gustavia_latifolia,Gustavia
Gustavia_longepetiolata,Gustavia
Gustavia_longifolia,Gustavia
Gustavia_longifuniculata,Gustavia
Gustavia_macarenensis,Gustavia
Gustavia_monocaulis,Gustavia
Gustavia_nana,Gustavia
Gustavia_occidentalis,Gustavia
Gustavia_parviflora,Gustavia
Gustavia_paucisperma,Gustavia
Gustavia_petiolata,Gustavia
Gustavia_poeppigiana,Gustavia
Gustavia_pubescens,Gustavia
Gustavia_pulchra,Gustavia
Gustavia_romeroi,Gustavia
Gustavia_santanderiensis,Gustavia
Gustavia_serrata,Gustavia
Gustavia_sessilis,Gustavia
Gustavia_speciosa,Gustavia
Gustavia_superba,Gustavia
Gustavia_tejerae,Gustavia
Gustavia_terminaliflora,Gustavia
Gustavia_verticillata,Gustavia
Eschweilera_aguilarii,Integrifolia
Eschweilera_amazoniciformis,Integrifolia
Eschweilera_amplexifolia,Integrifolia
Eschweilera_andina,Integrifolia
Eschweilera_antioquensis,Integrifolia
Eschweilera_awaensis,Integrifolia
Eschweilera_bogotensis,Integrifolia
Eschweilera_cabrerana,Integrifolia
Eschweilera_calyculata,Integrifolia
Eschweilera_caudiculata,Integrifolia
Eschweilera_collinsii,Integrifolia
Eschweilera_integrifolia,Integrifolia
Eschweilera_jacquelyniae,Integrifolia
Eschweilera_jefensis,Integrifolia
Eschweilera_ovalifolia,Integrifolia
Eschweilera_pachyderma,Integrifolia
Eschweilera_panamensis,Integrifolia
Eschweilera_rimbachii,Integrifolia
Eschweilera_rotundicarpa,Integrifolia
Eschweilera_sclerophylla,Integrifolia
Eschweilera_sessilis,Integrifolia
Eschweilera_tessmannii,Integrifolia
Lecythis_minor,Ollaria
Lecythis_ollaria,Ollaria
Lecythis_tuyrana,Ollaria
Eschweilera_alata,Parvifolia
Eschweilera_albiflora,Parvifolia
Eschweilera_amazonica,Parvifolia
Eschweilera_apiculata,Parvifolia
Eschweilera_atropetiolata,Parvifolia
Eschweilera_baguensis,Parvifolia
Eschweilera_beebei,Parvifolia
Eschweilera_biflava,Parvifolia
Eschweilera_boltenii,Parvifolia
Eschweilera_bracteosa,Parvifolia
Eschweilera_carinata,Parvifolia
Eschweilera_chartaceifolia,Parvifolia
Eschweilera_collina,Parvifolia
Eschweilera_coriacea,Parvifolia
Eschweilera_correae,Parvifolia
Eschweilera_costaricensis,Parvifolia
Eschweilera_cyathiformis,Parvifolia
Eschweilera_decolorans,Parvifolia
Eschweilera_donosoensis,Parvifolia
Eschweilera_eperuetorum,Parvifolia
Eschweilera_fanshawei,Parvifolia
Eschweilera_gigantea,Parvifolia
Eschweilera_grandiflora,Parvifolia
Eschweilera_harmonii,Parvifolia
Eschweilera_hondurensis,Parvifolia
Eschweilera_integricalyx,Parvifolia
Eschweilera_itayensis,Parvifolia
Eschweilera_juruensis,Parvifolia
Eschweilera_laevicarpa,Parvifolia
Eschweilera_longipedicellata,Parvifolia
Eschweilera_macrocarpa,Parvifolia
Eschweilera_mexicana,Parvifolia
Eschweilera_micrantha,Parvifolia
Eschweilera_microcalyx,Parvifolia
Eschweilera_neblinensis,Parvifolia
Eschweilera_neei,Parvifolia
Eschweilera_obversa,Parvifolia
Eschweilera_ovata,Parvifolia
Eschweilera_paniculata,Parvifolia
Eschweilera_parviflora,Parvifolia
Eschweilera_parvifolia,Parvifolia
Eschweilera_pedicellata,Parvifolia
Eschweilera_perumbonata,Parvifolia
Eschweilera_piresii,Parvifolia
Eschweilera_pittieri,Parvifolia
Eschweilera_potaroensis,Parvifolia
Eschweilera_pseudodecolorans,Parvifolia
Eschweilera_punctata,Parvifolia
Eschweilera_rabeliana,Parvifolia
Eschweilera_rankiniae,Parvifolia
Eschweilera_revoluta,Parvifolia
Eschweilera_rhododendrifolia,Parvifolia
Eschweilera_rionegrense,Parvifolia
Eschweilera_romeu-cardosoi,Parvifolia
Eschweilera_roraimensis,Parvifolia
Eschweilera_rufifolia,Parvifolia
Eschweilera_sagotiana,Parvifolia
Eschweilera_squamata,Parvifolia
Eschweilera_subcordata,Parvifolia
Eschweilera_subglandulosa,Parvifolia
Eschweilera_tenax,Parvifolia
Eschweilera_tenuifolia,Parvifolia
Eschweilera_truncata,Parvifolia
Eschweilera_venezuelica,Parvifolia
Eschweilera_wachenheimii,Parvifolia
Lecythis_ampla,Pisonis
Lecythis_lanceolata,Pisonis
Lecythis_marcgraaviana,Pisonis
Lecythis_pisonis,Pisonis
Lecythis_zabucajo,Pisonis
Lecythis_barnebyi,Poiteaui
Lecythis_ibiriba,Poiteaui
Lecythis_lurida,Poiteaui
Lecythis_poiteaui,Poiteaui
Lecythis_prancei,Poiteaui
Lecythis_schwackei,Poiteaui
Eschweilera_alvimii,Tetrapetala
Eschweilera_complanata,Tetrapetala
Eschweilera_compressa,Tetrapetala
Eschweilera_imbricata,Tetrapetala
Eschweilera_mattos-silvae,Tetrapetala
Eschweilera_nana,Tetrapetala
Eschweilera_sphaerocarpa,Tetrapetala
Eschweilera_tetrapetala,Tetrapetala