110	8 (T A N G W E R M)
Allantoma_decandra	00111100
Allantoma_integrifolia	00010000
Allantoma_lineata	00110100
Bertholletia_excelsa	00111100
Cariniana_domestica	00001110
Cariniana_estrellensis	01001011
Cariniana_ianeirensis	00001001
Corythophora_alta	00010000
Corythophora_amapaensis	00010000
Corythophora_labriculata	00010000
Corythophora_rimosa	00010000
Couratari_calycina	00010000
Couratari_guianensis	10111100
Couratari_macrosperma	00001101
Couratari_multiflora	00011100
Couratari_oblongifolia	00010100
Couratari_scottmorii	10000000
Couratari_stellata	00111100
Couroupita_guianensis	10111000
Couroupita_nicaraguarensis	10000000
Couroupita_subsessilis	00101100
Eschweilera_aguilarii	10000000
Eschweilera_alata	00010000
Eschweilera_albiflora	00111110
Eschweilera_alvimii	00000001
Eschweilera_amazoniciformis	00010000
Eschweilera_amplexifolia	10000000
Eschweilera_andina	01101000
Eschweilera_antioquensis	11000000
Eschweilera_apiculata	00010100
Eschweilera_atropetiolata	00010100
Eschweilera_biflava	10000000
Eschweilera_bracteosa	00111100
Eschweilera_calyculata	10000000
Eschweilera_caudiculata	11000000
Eschweilera_chartaceifolia	00111000
Eschweilera_collina	00110100
Eschweilera_coriacea	11111100
Eschweilera_cyathiformis	00010000
Eschweilera_decolorans	00111000
Eschweilera_grandiflora	00111100
Eschweilera_hondurensis	10000000
Eschweilera_integrifolia	11000000
Eschweilera_jacquelyniae	10000000
Eschweilera_juruensis	00101000
Eschweilera_laevicarpa	00111000
Eschweilera_collinsii	10000000
Eschweilera_mexicana	10000000
Eschweilera_micrantha	00111100
Eschweilera_nana	00000110
Eschweilera_neei	10000000
Eschweilera_ovalifolia	00111000
Eschweilera_ovata	00010111
Eschweilera_pachyderma	10000000
Eschweilera_panamensis	10000000
Eschweilera_parviflora	00111100
Eschweilera_parvifolia	00111100
Eschweilera_pedicellata	00111100
Eschweilera_pittieri	10000000
Eschweilera_pseudodecolorans	00011100
Eschweilera_rankiniae	00010000
Eschweilera_rimbachii	11100000
Eschweilera_sagotiana	00110100
Eschweilera_sclerophylla	10000000
Eschweilera_sessilis	11000000
Eschweilera_subglandulosa	00110000
Eschweilera_tenuifolia	00111100
Eschweilera_tessmannii	00111100
Eschweilera_tetrapetala	00000010
Eschweilera_truncata	00111100
Eschweilera_wachenheimii	00111000
Grias_cauliflora	10000000
Grias_multinervia	10000000
Grias_peruviana	11101000
Gustavia_augusta	00001000
Gustavia_dubia	10000000
Gustavia_hexapetala	10111100
Gustavia_longifolia	00101000
Gustavia_macarenensis	01101000
Gustavia_monocaulis	10000000
Gustavia_serrata	10000000
Gustavia_speciosa	11000000
Gustavia_superba	10000000
Lecythis_alutacea	00010000
Lecythis_ampla	11000000
Lecythis_barnebyi	00010000
Lecythis_brancoensis	00010000
Lecythis_chartacea	00111100
Lecythis_confertiflora	00010100
Lecythis_congestiflora	00010000
Lecythis_corrugata	10110100
Lecythis_gracieana	00010000
Lecythis_holcogyne	00010000
Lecythis_idatimon	00010100
Lecythis_lanceolata	00000001
Lecythis_lurida	00010111
Lecythis_minor	10000000
Lecythis_ollaria	00100000
Lecythis_parvifructa	00010000
Lecythis_persistens	00010000
Lecythis_pisonis	00111111
Lecythis_pneumatophora	00010000
Lecythis_poiteaui	00010100
Lecythis_prancei	00010000
Lecythis_retusa	00010100
Lecythis_rorida	00110000
Lecythis_schwackei	00000001
Lecythis_simiorum	00110000
Lecythis_tuyrana	10000000
Lecythis_zabucajo	00111100